*** Life<ConwayCell> 18x21 ***

Generation = 0, Population = 74.
.*...**...*..........
.......**..........*.
.*.......*.....*.....
..*......**..**.*..*.
..*..............*...
..............*.**...
....*...*..*.........
*...*.*.....*...*....
..*...........*....*.
..*....*.....**....*.
.*.***..*.*..*....*..
.*...*......*........
..*..*.........***...
...*.*...........*..*
....**..***..*.....*.
..........**.......*.
.........*....*......
*....**..........*...

Generation = 13, Population = 27.
.....................
.....................
.............**..**..
.............**..**..
.....................
.....................
.....................
.....................
...........**.*.**...
...........*.....*...
.*..........*...*....
.*............*......
.*...................
..................**.
.................*..*
..................**.
.....................
.....................

Generation = 26, Population = 25.
.....................
.....................
.............**..**..
.............**..**..
.....................
.....................
.....................
.....................
...........**...**...
...........**...**...
.....................
***..................
.....................
..................**.
.................*..*
..................**.
.....................
.....................

Generation = 39, Population = 25.
.....................
.....................
.............**..**..
.............**..**..
.....................
.....................
.....................
.....................
...........**...**...
...........**...**...
.*...................
.*...................
.*...................
..................**.
.................*..*
..................**.
.....................
.....................

Generation = 52, Population = 25.
.....................
.....................
.............**..**..
.............**..**..
.....................
.....................
.....................
.....................
...........**...**...
...........**...**...
.....................
***..................
.....................
..................**.
.................*..*
..................**.
.....................
.....................

Generation = 65, Population = 25.
.....................
.....................
.............**..**..
.............**..**..
.....................
.....................
.....................
.....................
...........**...**...
...........**...**...
.*...................
.*...................
.*...................
..................**.
.................*..*
..................**.
.....................
.....................

*** Life<ConwayCell> 10x11 ***

Generation = 0, Population = 1.
....*......
...........
...........
...........
...........
...........
...........
...........
...........
...........

Generation = 50, Population = 0.
...........
...........
...........
...........
...........
...........
...........
...........
...........
...........

Generation = 100, Population = 0.
...........
...........
...........
...........
...........
...........
...........
...........
...........
...........

Generation = 150, Population = 0.
...........
...........
...........
...........
...........
...........
...........
...........
...........
...........

*** Life<ConwayCell> 14x17 ***

Generation = 0, Population = 56.
*..*.*.*.........
............*....
........*..*....*
....**.*.........
..*....*.....**..
.**.........**.*.
..****.......*..*
*..........**....
*..**.*.....****.
..........*..**..
..*....**....*...
...............*.
.....*.*.*.......
..*****.*...**...

Generation = 81, Population = 4.
.................
.................
.................
.................
.................
.................
.................
........**.......
........**.......
.................
.................
.................
.................
.................

Generation = 162, Population = 4.
.................
.................
.................
.................
.................
.................
.................
........**.......
........**.......
.................
.................
.................
.................
.................

*** Life<ConwayCell> 7x9 ***

Generation = 0, Population = 19.
*.***....
.****...*
*....*...
**.......
*....*...
...*.*.*.
....*....

Generation = 82, Population = 0.
.........
.........
.........
.........
.........
.........
.........

*** Life<ConwayCell> 21x24 ***

Generation = 0, Population = 97.
.....**.......*.........
..*..*......*...*..*....
.....*...*.........*....
.*.....***..............
*............***.*..*..*
*....*..*...............
...*...*.**......*.....*
.............**.*......*
.....**...*....*.*....*.
.........*.*............
...*....*...*......*...*
....*.......*..*........
.*..*.*...*....**.....*.
.........*.....*....*...
*...........*.*..***....
.*....*.**......**.*.**.
*....*..**...*......*..*
........*........*......
.....*............*.....
............*.....*..**.
......***.*..*....*.....

Generation = 45, Population = 71.
........................
........................
........................
........................
........................
....*...................
...***..................
..*****.................
.**...**................
**.....**...............
.**...**................
..*...*.................
........................
.**....***....***.......
*......*..*..*...*......
.*****.....**.....*.....
....*.*****.*.....*.....
...*****....*.....*.....
........*....*...*......
.*.....*......***.......
.**...**................

Generation = 90, Population = 29.
........................
........................
........................
........................
........................
........................
..............*.........
..............*.........
..............*.........
........................
.................**.....
.................**.....
............*...........
...........***..........
..........*****.........
...........**.*.........
.......*....**..........
.........*..............
........**..............
...................**...
...................**...

Generation = 135, Population = 17.
........................
........................
........................
........................
........................
........................
........................
.............***........
........................
........................
.................**.....
...........***...**.....
........................
...............*........
...............*........
...............*........
........................
........................
........................
...................**...
...................**...

Generation = 180, Population = 17.
........................
........................
........................
........................
........................
........................
..............*.........
..............*.........
..............*.........
........................
............*....**.....
............*....**.....
............*...........
........................
..............***.......
........................
........................
........................
........................
...................**...
...................**...

Generation = 225, Population = 17.
........................
........................
........................
........................
........................
........................
........................
.............***........
........................
........................
.................**.....
...........***...**.....
........................
...............*........
...............*........
...............*........
........................
........................
........................
...................**...
...................**...

Generation = 270, Population = 17.
........................
........................
........................
........................
........................
........................
..............*.........
..............*.........
..............*.........
........................
............*....**.....
............*....**.....
............*...........
........................
..............***.......
........................
........................
........................
........................
...................**...
...................**...

*** Life<ConwayCell> 3x22 ***

Generation = 0, Population = 20.
.**.*.........*.*..*..
...*.*..**..*.*.....*.
..**.***....*....*....

*** Life<ConwayCell> 10x19 ***

Generation = 0, Population = 36.
.....*...*.........
...**..*...***.....
......*............
*...*.......*.*..*.
.........*.....*...
..*.......**.....*.
.*.......*....*...*
.*........*.*....*.
**.*......*.*.*....
.*......*..........

Generation = 92, Population = 8.
........**.........
........**.........
...................
...................
...................
...................
...................
...................
..........**.......
..........**.......

Generation = 184, Population = 8.
........**.........
........**.........
...................
...................
...................
...................
...................
...................
..........**.......
..........**.......

Generation = 276, Population = 8.
........**.........
........**.........
...................
...................
...................
...................
...................
...................
..........**.......
..........**.......

*** Life<ConwayCell> 23x3 ***

Generation = 0, Population = 28.
.**
.*.
..*
*..
.*.
*.*
**.
...
***
...
...
...
...
*..
*.*
**.
**.
..*
*..
***
...
.*.
**.

Generation = 91, Population = 6.
...
...
...
...
...
.**
..*
..*
.**
...
...
...
...
...
...
...
...
...
...
...
...
...
...

Generation = 182, Population = 6.
...
...
...
...
...
.**
..*
..*
.**
...
...
...
...
...
...
...
...
...
...
...
...
...
...

*** Life<ConwayCell> 11x13 ***

Generation = 0, Population = 51.
**...*....*..
..*......*.**
*....**..*...
.**...*..****
....*....*..*
..*.....*...*
..**...*.....
.......*.*...
*.*...*****..
*.....**.****
.*...****..**

Generation = 34, Population = 19.
.............
.............
.............
.....***.....
.............
.....*.**....
......**.**..
........**...
.......**....
.......*..*..
........***..

Generation = 68, Population = 11.
.............
.............
.............
.............
.............
.............
.*...........
*..*.........
**.***.......
*..*.........
.*...........

Generation = 102, Population = 6.
.............
.............
.............
.............
.............
.............
.............
...**........
..*..*.......
...**........
.............

Generation = 136, Population = 6.
.............
.............
.............
.............
.............
.............
.............
...**........
..*..*.......
...**........
.............

Generation = 170, Population = 6.
.............
.............
.............
.............
.............
.............
.............
...**........
..*..*.......
...**........
.............

Generation = 204, Population = 6.
.............
.............
.............
.............
.............
.............
.............
...**........
..*..*.......
...**........
.............

Generation = 238, Population = 6.
.............
.............
.............
.............
.............
.............
.............
...**........
..*..*.......
...**........
.............

Generation = 272, Population = 6.
.............
.............
.............
.............
.............
.............
.............
...**........
..*..*.......
...**........
.............

Generation = 306, Population = 6.
.............
.............
.............
.............
.............
.............
.............
...**........
..*..*.......
...**........
.............

Generation = 340, Population = 6.
.............
.............
.............
.............
.............
.............
.............
...**........
..*..*.......
...**........
.............

Generation = 374, Population = 6.
.............
.............
.............
.............
.............
.............
.............
...**........
..*..*.......
...**........
.............

Generation = 408, Population = 6.
.............
.............
.............
.............
.............
.............
.............
...**........
..*..*.......
...**........
.............

Generation = 442, Population = 6.
.............
.............
.............
.............
.............
.............
.............
...**........
..*..*.......
...**........
.............

*** Life<ConwayCell> 15x21 ***

Generation = 0, Population = 112.
...*.****.....*.....*
.*.*...*.*.***......*
.***..*.***....***...
.*.**....*..**..*....
*..*.....*.**.**.*...
*.*.**.....*.****.*..
*...***...*....**....
..*.*.**.*....*..*...
*.........*......*...
*...*......*.****.*..
*....**.....*..*.**.*
*.***....*..*........
....*....**...**....*
.....***.**.*.....**.
..*...******..*.....*

Generation = 55, Population = 17.
.....................
.....................
.....................
.....................
.....................
........**...........
.......*..*..........
........**...........
.....................
...............***...
.....................
.....................
.....................
**......**...........
**......**...........

Generation = 110, Population = 17.
.....................
.....................
.....................
.....................
.....................
........**...........
.......*..*..........
........**...........
................*....
................*....
................*....
.....................
.....................
**......**...........
**......**...........

Generation = 165, Population = 17.
.....................
.....................
.....................
.....................
.....................
........**...........
.......*..*..........
........**...........
.....................
...............***...
.....................
.....................
.....................
**......**...........
**......**...........

Generation = 220, Population = 17.
.....................
.....................
.....................
.....................
.....................
........**...........
.......*..*..........
........**...........
................*....
................*....
................*....
.....................
.....................
**......**...........
**......**...........

Generation = 275, Population = 17.
.....................
.....................
.....................
.....................
.....................
........**...........
.......*..*..........
........**...........
.....................
...............***...
.....................
.....................
.....................
**......**...........
**......**...........

Generation = 330, Population = 17.
.....................
.....................
.....................
.....................
.....................
........**...........
.......*..*..........
........**...........
................*....
................*....
................*....
.....................
.....................
**......**...........
**......**...........

Generation = 385, Population = 17.
.....................
.....................
.....................
.....................
.....................
........**...........
.......*..*..........
........**...........
.....................
...............***...
.....................
.....................
.....................
**......**...........
**......**...........

Generation = 440, Population = 17.
.....................
.....................
.....................
.....................
.....................
........**...........
.......*..*..........
........**...........
................*....
................*....
................*....
.....................
.....................
**......**...........
**......**...........

*** Life<ConwayCell> 9x10 ***

Generation = 0, Population = 26.
..*.*.....
*.****....
....*..*..
.......**.
*...*.*..*
*...*...**
..*.**...*
.....*..*.
.........*

*** Life<ConwayCell> 4x21 ***

Generation = 0, Population = 29.
.....*..*......*..*..
..*...*.**..**.......
***..*.**.***.***.**.
.**....*...*..*......

Generation = 16, Population = 11.
.................*.*.
.........**......*.*.
........*..*......*..
.........**..........

Generation = 32, Population = 6.
.....................
.........**..........
........*..*.........
.........**..........

Generation = 48, Population = 6.
.....................
.........**..........
........*..*.........
.........**..........

Generation = 64, Population = 6.
.....................
.........**..........
........*..*.........
.........**..........

Generation = 80, Population = 6.
.....................
.........**..........
........*..*.........
.........**..........

Generation = 96, Population = 6.
.....................
.........**..........
........*..*.........
.........**..........

Generation = 112, Population = 6.
.....................
.........**..........
........*..*.........
.........**..........

Generation = 128, Population = 6.
.....................
.........**..........
........*..*.........
.........**..........

Generation = 144, Population = 6.
.....................
.........**..........
........*..*.........
.........**..........

Generation = 160, Population = 6.
.....................
.........**..........
........*..*.........
.........**..........

Generation = 176, Population = 6.
.....................
.........**..........
........*..*.........
.........**..........

Generation = 192, Population = 6.
.....................
.........**..........
........*..*.........
.........**..........

Generation = 208, Population = 6.
.....................
.........**..........
........*..*.........
.........**..........

Generation = 224, Population = 6.
.....................
.........**..........
........*..*.........
.........**..........

Generation = 240, Population = 6.
.....................
.........**..........
........*..*.........
.........**..........

*** Life<ConwayCell> 19x5 ***

Generation = 0, Population = 9.
.....
.....
.....
.....
.....
*..*.
....*
.....
.....
.*...
..*..
**...
.....
.....
...*.
.....
.....
..*..
.....

Generation = 60, Population = 0.
.....
.....
.....
.....
.....
.....
.....
.....
.....
.....
.....
.....
.....
.....
.....
.....
.....
.....
.....

Generation = 120, Population = 0.
.....
.....
.....
.....
.....
.....
.....
.....
.....
.....
.....
.....
.....
.....
.....
.....
.....
.....
.....

Generation = 180, Population = 0.
.....
.....
.....
.....
.....
.....
.....
.....
.....
.....
.....
.....
.....
.....
.....
.....
.....
.....
.....

Generation = 240, Population = 0.
.....
.....
.....
.....
.....
.....
.....
.....
.....
.....
.....
.....
.....
.....
.....
.....
.....
.....
.....

*** Life<ConwayCell> 8x8 ***

Generation = 0, Population = 21.
.**...*.
***..*..
......*.
.*..**..
........
*..*...*
...*..**
.*.***..

Generation = 31, Population = 6.
........
........
........
........
..*.....
.*.*....
.*.*....
..*.....

Generation = 62, Population = 6.
........
........
........
........
..*.....
.*.*....
.*.*....
..*.....

Generation = 93, Population = 6.
........
........
........
........
..*.....
.*.*....
.*.*....
..*.....

Generation = 124, Population = 6.
........
........
........
........
..*.....
.*.*....
.*.*....
..*.....

Generation = 155, Population = 6.
........
........
........
........
..*.....
.*.*....
.*.*....
..*.....

Generation = 186, Population = 6.
........
........
........
........
..*.....
.*.*....
.*.*....
..*.....

Generation = 217, Population = 6.
........
........
........
........
..*.....
.*.*....
.*.*....
..*.....

Generation = 248, Population = 6.
........
........
........
........
..*.....
.*.*....
.*.*....
..*.....

*** Life<ConwayCell> 25x18 ***

Generation = 0, Population = 179.
***.....***..*.*..
..*.*..*****.**.*.
....*..*.....*.*..
.*...*.*....*..**.
*....*.**..*.....*
.***.*......*..*.*
..*.*.*..*..*.*.*.
.*.*.*.**.**....**
**.*.***.*...*...*
....***.*..*.*..*.
*.***.*..*...**..*
..***.*.*.*.*.*.*.
..**.**.**...**.**
....*..*......**..
.....**...**..*...
.*.*..*****.*.***.
.*...*.**.....*.*.
...*..**....*...**
...****.....*.*...
..*..**..*.*.*...*
.*..*..*..*..**.**
**.***...*.**....*
...*..**.*.....***
..*...***......*..
*....**.........*.

Generation = 80, Population = 31.
..................
.....*............
...***............
...**.**..........
.....*.*.......**.
......**......*..*
.......*.......**.
........*..**.....
...........**.....
........*..*......
........*.........
.........**.......
......**..........
..................
..................
..................
..................
..................
..................
..................
..................
..................
..................
..................
..................

*** Life<ConwayCell> 24x19 ***

Generation = 0, Population = 45.
.....*.............
*...*.......*......
...................
...............*...
...*.......*....*..
.*.*..*.....*......
....**.............
...................
............*...*..
............*......
.....*.........*...
...**.......*......
*......**...*..*...
..*.........*.....*
...*...*.*.........
.................*.
...................
.*.......**........
............*......
...........*.......
...*.*.*....*......
......*............
....*..............
...................

Generation = 15, Population = 37.
...................
...................
..*................
..*..***...........
..*.**..**.........
....***.**.........
....*.****.........
...................
...**..............
...................
...................
...................
...........***.....
...................
...................
...................
...................
...........*.......
..........*.*......
..........*.*......
.....**....*.......
....*..*...........
.....**............
...................

Generation = 30, Population = 27.
...................
..........*........
..........*........
..........*........
...................
......***...***....
...................
..........*........
..........*........
..........*........
...................
............*......
............*......
............*......
...................
...................
...................
...........*.......
..........*.*......
..........*.*......
.....**....*.......
....*..*...........
.....**............
...................

Generation = 45, Population = 27.
...................
...................
.........***.......
...................
.......*.....*.....
.......*.....*.....
.......*.....*.....
...................
.........***.......
...................
...................
...................
...........***.....
...................
...................
...................
...................
...........*.......
..........*.*......
..........*.*......
.....**....*.......
....*..*...........
.....**............
...................

Generation = 60, Population = 27.
...................
..........*........
..........*........
..........*........
...................
......***...***....
...................
..........*........
..........*........
..........*........
...................
............*......
............*......
............*......
...................
...................
...................
...........*.......
..........*.*......
..........*.*......
.....**....*.......
....*..*...........
.....**............
...................

Generation = 75, Population = 27.
...................
...................
.........***.......
...................
.......*.....*.....
.......*.....*.....
.......*.....*.....
...................
.........***.......
...................
...................
...................
...........***.....
...................
...................
...................
...................
...........*.......
..........*.*......
..........*.*......
.....**....*.......
....*..*...........
.....**............
...................

Generation = 90, Population = 27.
...................
..........*........
..........*........
..........*........
...................
......***...***....
...................
..........*........
..........*........
..........*........
...................
............*......
............*......
............*......
...................
...................
...................
...........*.......
..........*.*......
..........*.*......
.....**....*.......
....*..*...........
.....**............
...................

Generation = 105, Population = 27.
...................
...................
.........***.......
...................
.......*.....*.....
.......*.....*.....
.......*.....*.....
...................
.........***.......
...................
...................
...................
...........***.....
...................
...................
...................
...................
...........*.......
..........*.*......
..........*.*......
.....**....*.......
....*..*...........
.....**............
...................

Generation = 120, Population = 27.
...................
..........*........
..........*........
..........*........
...................
......***...***....
...................
..........*........
..........*........
..........*........
...................
............*......
............*......
............*......
...................
...................
...................
...........*.......
..........*.*......
..........*.*......
.....**....*.......
....*..*...........
.....**............
...................

Generation = 135, Population = 27.
...................
...................
.........***.......
...................
.......*.....*.....
.......*.....*.....
.......*.....*.....
...................
.........***.......
...................
...................
...................
...........***.....
...................
...................
...................
...................
...........*.......
..........*.*......
..........*.*......
.....**....*.......
....*..*...........
.....**............
...................

*** Life<ConwayCell> 11x18 ***

Generation = 0, Population = 32.
...**.*...*..*.*..
.*..*.............
.*................
.....*............
..*.....*****..**.
...*............*.
.*.....*.....*....
.............*....
....*.....*......*
...*..*.....*....*
..........*.......

*** Life<ConwayCell> 10x14 ***

Generation = 0, Population = 29.
..***..***..*.
..*.....*.....
****.........*
..............
.....*.....*.*
...*........*.
...*.....*..*.
.**..........*
...*..........
*....*......*.

Generation = 17, Population = 0.
..............
..............
..............
..............
..............
..............
..............
..............
..............
..............

Generation = 34, Population = 0.
..............
..............
..............
..............
..............
..............
..............
..............
..............
..............

Generation = 51, Population = 0.
..............
..............
..............
..............
..............
..............
..............
..............
..............
..............

Generation = 68, Population = 0.
..............
..............
..............
..............
..............
..............
..............
..............
..............
..............

Generation = 85, Population = 0.
..............
..............
..............
..............
..............
..............
..............
..............
..............
..............

Generation = 102, Population = 0.
..............
..............
..............
..............
..............
..............
..............
..............
..............
..............

Generation = 119, Population = 0.
..............
..............
..............
..............
..............
..............
..............
..............
..............
..............

Generation = 136, Population = 0.
..............
..............
..............
..............
..............
..............
..............
..............
..............
..............

Generation = 153, Population = 0.
..............
..............
..............
..............
..............
..............
..............
..............
..............
..............

Generation = 170, Population = 0.
..............
..............
..............
..............
..............
..............
..............
..............
..............
..............

Generation = 187, Population = 0.
..............
..............
..............
..............
..............
..............
..............
..............
..............
..............

Generation = 204, Population = 0.
..............
..............
..............
..............
..............
..............
..............
..............
..............
..............

Generation = 221, Population = 0.
..............
..............
..............
..............
..............
..............
..............
..............
..............
..............

Generation = 238, Population = 0.
..............
..............
..............
..............
..............
..............
..............
..............
..............
..............

Generation = 255, Population = 0.
..............
..............
..............
..............
..............
..............
..............
..............
..............
..............

Generation = 272, Population = 0.
..............
..............
..............
..............
..............
..............
..............
..............
..............
..............

Generation = 289, Population = 0.
..............
..............
..............
..............
..............
..............
..............
..............
..............
..............

Generation = 306, Population = 0.
..............
..............
..............
..............
..............
..............
..............
..............
..............
..............

Generation = 323, Population = 0.
..............
..............
..............
..............
..............
..............
..............
..............
..............
..............

*** Life<ConwayCell> 6x18 ***

Generation = 0, Population = 21.
...*....*......*..
..*...............
............*..*..
**....*.......****
..........**......
...*...**...*.**..

Generation = 70, Population = 5.
..................
..................
..................
....**............
....*.*...........
.....*............

Generation = 140, Population = 5.
..................
..................
..................
....**............
....*.*...........
.....*............

Generation = 210, Population = 5.
..................
..................
..................
....**............
....*.*...........
.....*............

Generation = 280, Population = 5.
..................
..................
..................
....**............
....*.*...........
.....*............

Generation = 350, Population = 5.
..................
..................
..................
....**............
....*.*...........
.....*............

*** Life<ConwayCell> 14x15 ***

Generation = 0, Population = 30.
......*....*...
.....*......*.*
........***....
.*...*..*.....*
.*.....*.......
..*.*.*...*.*..
...........*.*.
....*..*.......
...............
*.......*......
......*....*...
.*...*.........
..*............
...............

Generation = 13, Population = 21.
...........**..
.....**.**..*..
....*........*.
....*.......*..
....**......*..
......******...
..........*....
...............
...............
...............
...............
...............
...............
...............

Generation = 26, Population = 14.
...............
............**.
.**...*.....*.*
......*.......*
...............
............***
............**.
...............
...............
...............
...............
...............
...............
...............

Generation = 39, Population = 5.
...............
............**.
............*.*
.............*.
...............
...............
...............
...............
...............
...............
...............
...............
...............
...............

Generation = 52, Population = 5.
...............
............**.
............*.*
.............*.
...............
...............
...............
...............
...............
...............
...............
...............
...............
...............

Generation = 65, Population = 5.
...............
............**.
............*.*
.............*.
...............
...............
...............
...............
...............
...............
...............
...............
...............
...............

Generation = 78, Population = 5.
...............
............**.
............*.*
.............*.
...............
...............
...............
...............
...............
...............
...............
...............
...............
...............

Generation = 91, Population = 5.
...............
............**.
............*.*
.............*.
...............
...............
...............
...............
...............
...............
...............
...............
...............
...............

Generation = 104, Population = 5.
...............
............**.
............*.*
.............*.
...............
...............
...............
...............
...............
...............
...............
...............
...............
...............

Generation = 117, Population = 5.
...............
............**.
............*.*
.............*.
...............
...............
...............
...............
...............
...............
...............
...............
...............
...............

*** Life<ConwayCell> 21x9 ***

Generation = 0, Population = 27.
......*..
.**......
....*....
.........
.*.......
...*.....
.*.......
**.....*.
.........
...*.*..*
.........
....*.*..
.*.......
.....*..*
*........
....*....
...*...*.
...**.*.*
.........
.........
...*.....

Generation = 31, Population = 6.
.........
.........
.........
.........
.........
.........
.........
.........
.........
.........
.........
.........
.........
.........
.........
....*....
...*.*...
...*.*...
....*....
.........
.........

Generation = 62, Population = 6.
.........
.........
.........
.........
.........
.........
.........
.........
.........
.........
.........
.........
.........
.........
.........
....*....
...*.*...
...*.*...
....*....
.........
.........

Generation = 93, Population = 6.
.........
.........
.........
.........
.........
.........
.........
.........
.........
.........
.........
.........
.........
.........
.........
....*....
...*.*...
...*.*...
....*....
.........
.........

Generation = 124, Population = 6.
.........
.........
.........
.........
.........
.........
.........
.........
.........
.........
.........
.........
.........
.........
.........
....*....
...*.*...
...*.*...
....*....
.........
.........

Generation = 155, Population = 6.
.........
.........
.........
.........
.........
.........
.........
.........
.........
.........
.........
.........
.........
.........
.........
....*....
...*.*...
...*.*...
....*....
.........
.........

Generation = 186, Population = 6.
.........
.........
.........
.........
.........
.........
.........
.........
.........
.........
.........
.........
.........
.........
.........
....*....
...*.*...
...*.*...
....*....
.........
.........

Generation = 217, Population = 6.
.........
.........
.........
.........
.........
.........
.........
.........
.........
.........
.........
.........
.........
.........
.........
....*....
...*.*...
...*.*...
....*....
.........
.........

Generation = 248, Population = 6.
.........
.........
.........
.........
.........
.........
.........
.........
.........
.........
.........
.........
.........
.........
.........
....*....
...*.*...
...*.*...
....*....
.........
.........

Generation = 279, Population = 6.
.........
.........
.........
.........
.........
.........
.........
.........
.........
.........
.........
.........
.........
.........
.........
....*....
...*.*...
...*.*...
....*....
.........
.........

Generation = 310, Population = 6.
.........
.........
.........
.........
.........
.........
.........
.........
.........
.........
.........
.........
.........
.........
.........
....*....
...*.*...
...*.*...
....*....
.........
.........

Generation = 341, Population = 6.
.........
.........
.........
.........
.........
.........
.........
.........
.........
.........
.........
.........
.........
.........
.........
....*....
...*.*...
...*.*...
....*....
.........
.........

Generation = 372, Population = 6.
.........
.........
.........
.........
.........
.........
.........
.........
.........
.........
.........
.........
.........
.........
.........
....*....
...*.*...
...*.*...
....*....
.........
.........
