*** Life<FredkinCell> 2x14 ***

Generation = 0, Population = 7.
-0---0--------
--0---00-0-0--

Generation = 21, Population = 14.
--0-0-040+050-
-2-4--7----56-

Generation = 42, Population = 9.
-----8-----9--
+-+--6+-++---9

Generation = 63, Population = 14.
----0+0--+---+
-+-++-+++++-+-

Generation = 84, Population = 10.
-+-+-+---+---+
+--+-+---++---

Generation = 105, Population = 15.
0-0+-+---+0---
-+++-++++-+--+

Generation = 126, Population = 12.
-+-+---+-+-+--
-++-----+++++-

Generation = 147, Population = 13.
-+--0----+-+0-
+++----+++--++

Generation = 168, Population = 14.
-+-----+-+-+-+
+++++-++--+--+

Generation = 189, Population = 18.
0+0+0-0+0---0+
+---+-+++--+++

Generation = 210, Population = 13.
---+-+-+-+---+
+-+-+--+-++++-

Generation = 231, Population = 14.
--0-0-0+0+0+0-
-+-+--+----++-

Generation = 252, Population = 9.
-----+-----+--
+-+--++-++---+

Generation = 273, Population = 14.
----0+0--+---+
-+-++-+++++-+-

Generation = 294, Population = 10.
-+-+-+---+---+
+--+-+---++---

Generation = 315, Population = 15.
0-0+-+---+0---
-+++-++++-+--+

Generation = 336, Population = 12.
-+-+---+-+-+--
-++-----+++++-

Generation = 357, Population = 13.
-+--0----+-+0-
+++----+++--++

*** Life<FredkinCell> 15x13 ***

Generation = 0, Population = 65.
-00----000--0
--0-0--0-0-0-
0--00-0-0-0--
0----0-----0-
---000--0---0
-00-------0-0
----------0--
--0-----0---0
---00-0-0-0-0
--00-0----0-0
--000---0-00-
--000-----0--
---00-------0
0--0----0----
0---00---00--

Generation = 20, Population = 96.
--24-4-7--56-
-5-5---83-34-
97+-25---54--
+6---6-8-37--
4-6-3--4--25-
-36--5---7-25
7-64----4-6--
6--47326-2-47
--3577-7-3---
-6-5-6--4--55
-542--7--42-4
---5---35---2
-4-6--4-75-+-
6-346954-21-1
8+-+--8-8---4

Generation = 40, Population = 108.
+-5--+---6+++
-9-+-+-+-++-8
+9+---+99+---
---4-+-+58+--
-+--++9-+--9+
+9-9+-4-8++-+
+-+7++9--7+86
----+-----2--
9--+++4-+8---
9+-88-6-+-49+
8-67--+88-9-9
656---+-+6+-9
7+5---+898+-7
-----+9+-+77-
+---+8-7+---+

Generation = 60, Population = 92.
+-7-+-6--+---
-+9++-++-+-++
--+++-+--+--+
++------+--8-
++++--+-++7++
-+++------+--
+--+++++-+++-
--++-8+-+--++
+--+----+++-+
+--++---+-7+-
++---+----+--
+-+-+----+--+
++--9++++++-+
+-+----------
--+++---+-+--

Generation = 80, Population = 95.
---+++--+-+-+
-++-+++-+++++
+--+---++--+-
--+++-+-++-+-
--++--++-+-+-
+++---+--+--+
--+---+-+---+
----+---+-5-+
+-++---++-++-
+-++--++-+-++
+------+----+
---++--+--++-
+-+++-++--+++
+-++--+++-+++
+++-++--+----

Generation = 100, Population = 99.
+-+++--++++-+
+++++-+++++--
--+--++-+++--
---+++---+--+
--+---+-+-++-
+--+-+--++-+-
---++-++---+-
-+++-+-++----
-++-+++++-+++
++----+++---+
---+-+++--++-
+-----+++--++
--+-++-+-----
++--++-+--+++
-+-++--+-+++-

Generation = 120, Population = 100.
++-+++--+--++
--+-++-+-++++
+--+++--+-+--
+++-+++++-++-
++-+--+---+++
+--+++++--++-
++--++-+--+-+
+-----+------
++++-+++---++
++--+-++-++--
+-+----++--++
+-+--+--+---+
+-++-+--+---+
++---++-+-++-
---++---++---

Generation = 140, Population = 100.
+++--+---+---
+--+-+-+--+--
++-+-+-+-+++-
++++--+-+++++
+-+--+-++---+
+++++--++++++
-+-+++-++-+-+
+-+-+--+++---
++-+++++++-+-
--+----++-+-+
-+--+-------+
-+--+++-++--+
+--++++--++--
+-+-----+-+--
+--+---+---++

Generation = 160, Population = 85.
---+---+++-++
--+++++-++-+-
+-++--+++-+-+
-+---++++++-+
-+++++++-+--+
----+++---+-+
+-+-+---+----
--------+---+
---++-++-----
-+-+++++-++-+
--++------+--
+--+--++-----
+--++--+--+-+
+-++---++---+
++--+--------

Generation = 180, Population = 97.
+++--+-+-++++
----+++++-++-
++---+--+-+-+
++++++++--+++
+--+----+-+++
+++--++++-+-+
---+---++-+--
-+----++---++
-++-+-+-+--+-
-+-++----++--
+--+--+++++--
----+-----++-
--+++-+-+++-+
+++---+---++-
+--+-+++-----

Generation = 200, Population = 95.
-+--+--++----
-+---++-+--+-
--++---++++++
-+--+-+-+-++-
+++---++++---
---++--++++-+
++++--+---+--
+---+-+-+-+-+
-+-++-++--+-+
---+++--+-+-+
--+---+---+++
--+---+--++-+
--++--++-++++
-+++-------++
-+++++-+++++-

Generation = 220, Population = 89.
+-+--+--+++--
----+--+-+-++
---+++-+-+--+
+-+--+-++---+
--++--+--++-+
+-++-+-+--+-+
-+-----++--++
++-+++---+---
+-++-+++-+--+
--+++-+---+--
+++-+-+--++-+
+----++--++-+
-+-+++-++-+++
----+-+------
--++---+--+--

Generation = 240, Population = 91.
++-+-+++++--+
-+---++++-+-+
+-+----++--++
---+-+---++-+
+----+-+-+++-
--+-+---++--+
+---+--------
+-----+-+---+
-------++-++-
--+-++-+++-++
+-+++--++-+++
+---+-+++-+++
+-+---++--++-
--+---++--+++
++--+-+--+--+

*** Life<FredkinCell> 19x20 ***

Generation = 0, Population = 124.
----00-------------0
00-00---0---0------0
--0--0-00---0-------
---0---0---------00-
---000---00--0-0-0--
---00--0-----00-0---
---0000--0-00--0--00
-0-----0----0------0
0---0000000--00-----
---00----00-000--0-0
----------0-00-0000-
0----------00-0--0-0
0-0--0-----0--0--00-
-----0--0-0--0--000-
0--00-0---00000-0---
-------0------0-----
00-0-----00-000-----
0-0---00--0------0--
------0--00-00------

Generation = 16, Population = 193.
-3-4542---52----1--5
5--3---45-443-2-2475
6----6-3--22344-7--3
204---2-----6-+-----
----6615-34---3-344-
44588-1-54--558--5--
-4-469-7--47-1-2--3-
-626-8-+-----26----5
-5--1-543-46-51-25--
6-7--4--6-7-1--5-237
--64--142-4-23-1--4-
-733-6----14-6--6-43
63-4-54-46--2-73-7-1
-35-4--3--53-3--57-3
11677-04532-3-3-8-2-
62--------0-3----4-7
1753610--276-3--3560
5---1--9-----17--2-2
-6-2-1-2-703-+2--20-

Generation = 32, Population = 187.
3---9--698+-58----++
+-9-8+--9---589-4+-+
89+-79+--5-----9+8+-
41-+-4--9--3--+--7+8
----9---7--+6-----5+
7---+-6---+-+----+88
87--++7-659-------68
-93------5----8--83-
+-+657--5+--++-7--3-
+8--647-8++98-9-5-+-
+--6-----6+-+-4+-75-
-+78+---+537-8--++-+
-7---+-+--5-88--6+-6
3-88+--68-+-8--3+-8-
---++---+--6--++-3--
----8-------5-+-7+-9
6-+-+----98-+7---862
+9746+5+-59--8+--669
--35-6----47++++-384

Generation = 48, Population = 194.
+++-+--8++---+9--+++
-++6---+---88+-+7++-
+--9-++---++++---+++
9--+89-++----++-7--+
8-7------97++---+--+
-++-+++---++-+---+++
--7-++---+---+----9-
+---++7+-93--9-9++-+
+--8--+--+-+-----+-9
--+-89++++--9---7-+-
+-----+-9+--+9-+-+++
--9--+5++6--++-9-+-+
++----+-++7+-+--+--+
6++-+-+8+----+------
47+--+3--9++-6-++---
---+-8-5++--6-+--++-
-+-++5----+++9-95-+-
+--+++---++-+-+7--6-
-+7-4--9++98+++++5++

*** Life<FredkinCell> 3x2 ***

Generation = 0, Population = 2.
--
0-
-0

Generation = 91, Population = 1.
--
--
0-

Generation = 182, Population = 2.
-0
0-
--

Generation = 273, Population = 1.
0-
--
--

Generation = 364, Population = 2.
--
0-
-0

*** Life<FredkinCell> 12x8 ***

Generation = 0, Population = 31.
0-0-----
-00--0--
0----0--
000---0-
---0-00-
0--0-00-
------00
0-0-----
--0-0-00
--------
0-------
00-0---0

Generation = 41, Population = 49.
--+++-7+
-++-+--+
+-+48--6
--+-9++-
-++--+--
9-5-++-9
+----9--
--++-++-
-+++--8+
---+----
-9-88-++
-+-6++++

*** Life<FredkinCell> 20x3 ***

Generation = 0, Population = 23.
-00
0--
-00
---
---
-0-
0-0
---
0--
--0
-0-
0-0
---
-0-
-0-
000
-0-
0--
-00
0--

*** Life<FredkinCell> 20x15 ***

Generation = 0, Population = 19.
---------------
-----0---------
0--------------
---------------
---------------
---------------
---0--0------00
-------------0-
---------------
---------0-----
-0----0--------
------0--------
--------0---0--
---------------
------------00-
---------------
--0------------
---0-----------
---0-----0-----
---------------

Generation = 25, Population = 146.
-2--5521-2-53+9
0--7-1--0-36-6-
344-5-41--369-8
23--1-31--3234-
3336-43-------4
1-0----2---1---
--784+56--3-6--
1-1-284-08--1+1
--4---4-5--4-89
---6--5--4-51-0
-6--34------635
-2----42----16-
--44-420-0-1--+
--2-593-----4--
7--64-+3-2--5--
2-34-65-----1--
-45-24-3----483
-5--287--4-6--2
7----8-32--3-65
03-83--2-4-2140

Generation = 50, Population = 115.
-8+--+5--54-6-+
-7----6--+-+---
++-8-+-4---++--
----7-+-68-7-6-
9--------------
---74-++2+-3-+-
53++-+-8---8+--
-+-8-+9+-+-7---
-+-+-+---+4-7+-
-----+-------+-
8-++6---5267-+9
-7----9------+-
+6--+--58----+-
----+--85--5---
++--9-------7+6
---9-----------
+-+-7+-+---68+5
-+-+3+-68--+---
--++-+--57-8+--
---+-++------+-

Generation = 75, Population = 154.
5-++-++--+8-+++
----4-++-+++-++
+-----+6-+--+--
794++----+5++95
+---+-+-77--+--
7+---+--3-954+8
+-+--++-+++++--
7--+5+----7-4+-
+-+-6---+---+++
399---+--+7-6+-
--+---------+--
5++----9-+----4
-+-+-+-5-++-+++
++7++-++8-----9
-+--++-988+-++-
-7---+----3----
+--+-+9+7+-89+-
++7+5-+---4-4-+
--+++++-9+6++--
3-9+---+--75--7

*** Life<FredkinCell> 23x24 ***

Generation = 0, Population = 121.
0--------0---0----------
-----0-0000------0------
---0-0----0-0-----0--0-0
------0--00--0----------
--00---0----0---0---0-0-
000------0-00-00--------
0---0-0---0---0--------0
--------0---0---0-------
000-------0--0----0-0---
-----00-00---0-----0----
-----0----0--0--0-------
0-0--------0---0--------
---0-0---0--0--0----0-0-
----------0------0--0---
-0000----------0----0---
-00-0-0------0-0----0--0
---0--0-------0-------0-
------0-----0-------0--0
------0---0---------0---
---------0--00----0--0--
-00--0--0-------0-----00
0------00--------000----
----0------------0-----0

Generation = 98, Population = 270.
-++-++-+-+-++--++-+-++++
++++--+-+-----+-++--+6-+
-+--++++-+---+-----++-+-
++--+---++++--+++++++---
--+++-++----+++++---++++
+-+++---+---------++-+++
+-+++-++-+---++--+++-+++
-+---++----+++++++--+++-
++--++-++-+---++--+--+-+
-----++-++-+--+---++--+-
++-+++++-----+--+++-+--+
+--+--+++-+++--+--------
--+--+--+-++8+++--++-++-
+-+-+----++----++-+-+-+-
+-+-+---++--+----+--++++
+-++---++-----+-++----+-
-++--++++-++++-+--++-++-
++-+---+----+---++------
++---+-+++-++-+-+++++++-
--+-+-+---+-----++--+--+
-+-+--+--+---+--++++++--
++-+-+--+--+--+--++++--+
--+--+----+-+++++++++---

*** Life<FredkinCell> 20x10 ***

Generation = 0, Population = 51.
---00----0
---0000-0-
---0---00-
----00----
0--------0
-00---00--
----------
------0-0-
0---0--0--
------00--
----00--0-
-0---0-0--
--0-00---0
0-----000-
0------0--
0-----0---
-------00-
-0------0-
--0-0-----
--------0-

Generation = 9, Population = 111.
2-2233--5-
01----24--
---42-2---
--103-2-3-
23-0-42-13
32-2--73--
410----4-5
4340--1-2-
--23-----1
--02--3112
-5-331-012
44-0-5--5-
----71-32-
-522322-40
002--21550
55--121--0
22---2--1-
1-0043-45-
-0-00-13-2
---14151-0

Generation = 18, Population = 104.
--52-8-28-
357-4-274-
22-7--284-
7641-5----
33--4---3-
-4-5-6792-
9225-3---6
765-3--3--
0--62-4-3-
4-45-1-5-5
-95--110-4
-7-53-4---
-044+-6-5-
--+2--7-61
---3--49+4
---27--4-2
3--82-55--
-212--56-3
3--55-2---
-4---3-7-4

Generation = 27, Population = 96.
848-8----8
7+8-5---9-
-----96---
--5-4-37+5
-4564++-68
-4+-2-++--
9255-62---
++------7-
11----7-44
--4----86-
-+-+82----
--4-----6-
72-8-+---5
-+-5-385-2
4163695---
---5-4457-
8-+-2--+57
6---+58---
7666-5---7
----+-99--

Generation = 36, Population = 102.
-7-4++--+-
-----8--+-
--5---6--8
++-5---8-9
96695--58-
---+69+-7-
-66++75---
+-7-6---+-
-3--66+978
--7-+49-+8
----+86---
++6-7847-+
8---++-+8+
--+9---9+-
-486--8++6
-+--9--8--
+-++--6--+
+424-+-+--
----+-5+3-
-86--4++4-

Generation = 45, Population = 100.
-----+96++
-+9-9+8+++
99--9-----
+++8-+8+-+
-----++99-
-+++-++++-
-+7-++----
+-+--97--+
58+-+--+7-
+798+-+--+
--9++9----
+--+-+----
-6--++--+-
9+-+++-+--
+5+--+--+9
++---69-85
--++---+--
--------6-
--8-+99-68
--7--8+-6-

Generation = 54, Population = 102.
++---++--+
+-+--+---+
-+7----++-
-+++-++-+-
++8+8--+++
++++-++---
++8--+---+
+---+-9+-+
9-++++++-+
-+--+8--+-
-+9+----8+
--9+-----+
-------++-
-++-+-+--6
-+-+9--++-
--+++-+--8
+7+--+---+
---7++--9+
---9++-++-
5++7+-+--+

Generation = 63, Population = 106.
-+-++-++++
++-+-+-+--
+-9--++-++
+-+-------
-+---+++-+
--+-++--++
+--+++-+++
++++-+--++
++----+---
+-++-+++-+
+-+++9-89+
--+--++-+-
+++--+++-+
+-+-+---+8
--+-++-+++
++-----++-
----8--++-
-+-----+++
+-+-+-+--+
9++---++9-

Generation = 72, Population = 97.
+-+++-----
--+-+-+--+
+++--++++-
-++--+++++
+---++--+-
++++-+-+--
-+-+-+---+
+-+-----++
+--++--+-+
-+----++++
---++-++++
-+++-+----
+++-+++++-
--+++---+-
-+---++++-
+----+-+-+
-++-9+--++
-----+-+-+
++---+----
--++--+--+

Generation = 81, Population = 110.
++-++--+-+
+--+++++-+
+---+-+-+-
--++-+--++
+++++++--+
+-+-+++++-
+--+-++-++
++--++---+
---++++-++
--+-++++++
++-----+++
+-++-+-+++
++-+--+--+
+++---+---
---++++---
+-+--++--+
++-----+--
+--+-+-+--
-++-+++++-
-+-+-+-+-+

*** Life<FredkinCell> 14x24 ***

Generation = 0, Population = 94.
-0---------0---------00-
---0-0-0--0-0-0-------0-
0---0-0----0-0---0------
0--000---000--0--0--0---
0--00-0-0---0-----------
-000---0-0--0--0------0-
0--0----0----0-0-------0
--0-----0-------------00
--00-000---0---0----00--
-00-0-----00-00---00----
0------00---------00---0
0--00-0--0---------0-0--
0---0-0-00---0---0---0--
--00----0--------------0

Generation = 54, Population = 168.
+--+--++-+9+7++9-8+++--+
--+++99--9++9+-+-7+++++-
+-+---+++9+---5+--5-----
---++8++++--++++--++-+--
-----+++--+8+-++----+---
--+++--+-+++--+8+-+--++-
+--+++-+++-+++--+-+++-++
-9++-99+-++-+7-+-++9+8--
2---9+-----+----9-+-----
++7--+--+--+---+--+--+--
+---+7------+++-+-+--+--
---+-+-++++-9+--------7+
---+-+--+-+----+++++-+--
--++-+++-++-+--5-+---7++

Generation = 108, Population = 167.
-++---++-+--+-++++------
-+------+----+--++-+++-+
-+++++---++-+-+++++---++
---++-+---+--+--+-++---+
--+--+----+-+++--++-+-+-
+-+--++-++-+++-+++-+--+-
+-++-+++-++++++---+---++
--+---+--++--+++--+-+-+-
--+-+++-+++---++--++-+--
-++-++-+++++--+-+--+-+--
+---+++---+++----++--+++
---++--+++--+---++++++++
+++--+-+++-+-+----+++-+-
++-----+--+--+++-+-+++--

Generation = 162, Population = 170.
------+-+++-+----+-+-+++
++--++--++-+-+++-+++---+
-+-+++---+-++-++++++--++
--+-++-++++--+---+---+--
+++-+++++-+++----+++++++
-------++-+-+++---++-++-
++-++-++++-++-+-----+--+
-++---++++---++--+--++--
-+-----+--+---+-+++--++-
+-+-+-++--+++++++-+---+-
-++++-+-++-+----++-++-++
---+--+-+++-+--+++--+--+
--+-----++-+-+-+--+-+---
--++-+---+++--+-++++-+-+

Generation = 216, Population = 173.
+++--+-+---+--++-++++--+
--+--+++++++--++---+-+--
+--+-++-+-+++-+++----+++
--+++++++---+++--+------
----+-++--++++-+-++++++-
+--++---++---++--+--+-+-
+++-++-+++-++++---+++-++
-+-++-+-+---++-++---+--+
++--++--+-++-----+++-+-+
++-++++++--+-+++-----+--
+++-+++----+-+--+-+-+++-
+++-++++++-+-----++-+--+
---+----+++-+-----+-+---
++-+---+--+-++++---+++--

Generation = 270, Population = 164.
--+-++------++++-----++-
+--+-----------+++++--+-
+-+-+--+++++-+--++----+-
-----++++----+++---+++-+
++++--+--+-++-++-++--+++
+-++----+++-++---++-++--
+-+-+-+++-+----+-++--+-+
-++-+++-+------+-+++---+
----++++---+++-+-+-++--+
-+-+-+++-++-+-------+-++
-+-+-+++++++-+-++---+---
--+-+-++--+-++-++---+-++
-+-+++---+--+--+-++-++--
-++---++-++++-++-+-++-++

*** Life<FredkinCell> 22x17 ***

Generation = 0, Population = 58.
0-------0----0--0
----------0------
0---------0------
-0-----0------0--
----0---0---0----
----0-------00--0
---0-----0---0---
----------0--0---
--0--0------0----
0----0-----0-----
-0--------0------
-----0-------0---
----0-----00--0--
----0-----00-----
--------0-------0
-----0-----------
-0--------------0
0-----------0----
---0---0-0-------
-0------0------0-
------00-------0-
---0-------0---0-

Generation = 51, Population = 185.
-6--+++---+----9-
----+--++-+-++--9
-+-++-+--++++8++-
-----+-+++-++-++8
-9--+----+-6++---
++++-++-+-+9-6+--
-+--+-+-7--++8---
+--+6+--9++--+-++
+++-9--+-++-+----
++9----++--9+-++-
+--+-----+-9+++--
-+6-+8-+5-++++---
3--+-8+--8+-----+
+-+-+++--+9-++--9
+-+---+-----8+--9
++4-+7-+-++-++--+
---88+---++--6+--
+++--9+-++++-----
-+--+--+5++-++--+
++-+---+-+--+--+-
6++----+9+-++-+-9
+---9--+---++++-8

Generation = 102, Population = 203.
+-+--+--++-+-+--+
+-++----++++++--+
-+++-++-+++---+--
+++-+++-++-+-+++-
--++-+---++++-+--
++--+--+++-++-++-
-+-++---+-+++++-+
--++-++--++++++--
+++-++-+++-+-+++-
----++++-++--+---
++--+-+---+++---+
++------++---+---
+++--+-++++---+++
++-+++-+--+-+-+-+
++++--++-++---+++
---+-++-++--+-+++
-+-+--++-+-+++-+-
++--+--7+---+--++
-+-+--+++-+-+++++
++---++--+++-++--
-+++---+++-++--+-
----+-+--++--++-+

Generation = 153, Population = 188.
++-+-+---++---++-
---++-------+-+++
+++-+-+++-++-+-++
--+-++----++-++-+
+---+-+---++-+-++
---++------++-+--
+-++++---+---++--
+++-+++--++---++-
-++--++-+++-+++-+
-+++----+---+-+++
-+-+-+---+---++++
--++---+------+++
+-+++----+++-+++-
+-++-++++-+-++-+-
-----++++-++--+--
+---++--+-+-+--+-
--+-+--+--++--+++
--+++--+-+++-+-+-
-++--+++++--+----
-++---+++++--++--
+-++++++-++-++---
-++-+-++-+++--+-+

Generation = 204, Population = 186.
--+++---+--+-++++
-+-+-+-+--+-+-+-+
-+++-+-+-+-++---+
+++-+--+--------+
-+----+---+-+-+++
-+--++--+-----+--
--+----+-+-+-+--+
+-++-++-++++-++++
-++----++-++--+--
-----+-+-+++++-+-
+-+----+-+--+++++
+-+----+++--+++-+
+--+-++++-+-+--++
--++---++++--+-++
++-+-++---+-----+
+--+--+--+++---+-
+--+++-+++++-+---
+--+---+++-+-+++-
+-++-+---++----+-
+-+-++--++++-+++-
+--++-++++-+-+-+-
-+--+---+++++-+++

Generation = 255, Population = 183.
------++--++++---
--++-+-++++--+-+-
+++--------++++++
+++-++++++-+-+++-
----+----++++-+++
-+++----+--+-+--+
---++--++++---++-
-+-+--+++--+-+-+-
---+---+-+--++-++
+-+++-++-+--+---+
++-+--++--+-+--++
---+-++------+-++
+-++++----++-+---
+-+-+-+++-+---+--
--++---+--+-+-+-+
+--+---+++--+----
++-+++++----++--+
+-+------+++-+-+-
+++--+++-+-++---+
+--++---+-++++--+
++-++++--++-+-+--
++++--++-+++-----

Generation = 306, Population = 186.
--++--+++---+-+++
-+++-------+-++++
---++++----+---+-
+-++++-+----++-+-
------++---++--++
--+++-----+----+-
+--+-+---++--+-+-
-++-+-----++++---
---+++--++-++-+--
+-+-+-++++--+-+++
+++--+-+++++-+++-
-+++-+-+-+-++++++
---++-+--+++-+-+-
++-+++++---++++++
---+++--+++---++-
+-+++-+--+------+
+++-+--+---++++--
-++-+----+----+--
---++--++--+++-+-
+---+--+-+-+++++-
++------+-++++++-
+--+++-++-++-+--+

*** Life<FredkinCell> 25x12 ***

Generation = 0, Population = 74.
000---0--0--
0-----0-----
---------00-
-0---00--0--
------------
----0-------
-0------00-0
--0--0----0-
-----------0
------0--00-
0---00-0----
---0--00----
------------
-0--00--0-00
0---00--0---
00----------
-0----0--0-0
------0-0---
-0-----0-0--
-0--0------0
--0000---0--
--0----0---0
--0-0----0--
0------00--0
---0-0--0---

Generation = 38, Population = 155.
++++--8++--5
+--7-8---78+
-----++-8+8-
--467+-77---
9+--859-----
5----8+-+898
88--7+--+-+5
-3+-+-+---56
+---5-3-+7--
+--4--+6+9++
+9-3----69--
-+--5-6--+--
-----5-++597
+++---+--88+
-+-5-8-+-5-+
7--9++--87+-
+-9-+-+--++-
+-+7--+-+6-+
-+-+-5----6-
--68+----6+-
6-5--+++8+8+
-5-98+--+---
++-+-84--+9-
+-6+-+5++--+
6-8+--+--88-

*** Life<FredkinCell> 19x21 ***

Generation = 0, Population = 96.
-0--------0--------0-
--00--0-------------0
----0-0--0----0-00---
-0--0--0----0------0-
-------00--0--0-----0
0------0-00---0--0---
-----------0------0--
00000----------0-----
-0-0--0-----0--------
--0--0---------0---0-
-0-000-0-----00------
--------0------0-0-0-
-0-000--0---0----0--0
---0-0-----0--0-0----
0-0-0--0--------00---
0--0-------0--0------
-----0---0-0-------00
-00---000--------00-0
------0--00------0---

Generation = 47, Population = 202.
+-6++----+++--759-+--
+9---+697--4+-+---+--
+++-----+-+++----+--+
+-+---6+---++++--9---
----++---+-9-+++-+---
+-+---898-+++------8+
+-+9+--+----+---+-+-+
---8-6+8-77-6+--66++-
+-7-+--+-----+---+-++
+-+7--++-+-+---+-+-+4
--++9-4+----8+--++6-+
-++---9--6++-7+7++9+8
------9+-+++--+9-+++-
---+-----++-++7-+-7+8
--5+-8++7+-++9----+++
8-++++9--+-+-+++-----
+-+++++++-+-+-+-+7+--
----+8-+-++-6-+--+--+
-+--9-++3++--+3-8+99-

Generation = 94, Population = 203.
+++++-+---+--+--++-+-
--++++++-+++-++++++--
--+--++--+-+-++--++--
+++-++++++-++---+++-+
--+--++-++--+-----++-
+-+-+++++++---+-+-++-
----++---+--+--+++-++
+-+-+++-+-++---+++++-
------++++----++++++-
-+-+---+++--+---+-++-
-+---++-+-++++-++----
-+++----+-+-+-+-++++-
++-----+++++---+----+
+---+++++++++++-+--++
-----++--++-----++++-
-+--+-++----++-++++--
++--+-++---+-++--++--
----+-++++-+++-++----
+--+---+----++-+-+-+-

Generation = 141, Population = 206.
-+-++++-+-+-+--+-++++
+-++--+-++-++-+++++--
-+--++--+--++-++-++++
+-+--+++-++--++++--+-
+++++----++---++--+-+
++++--++-+--+-++-----
+++--++-++--+++++++--
---+++-++++-++--+----
--+---++---+--+---+--
----+-++--+++--+--+++
+++---++++-+--++++-+-
+-++--++-+----+++++-+
---++--++--++---+--++
-+---+---+--+++++++++
-+-++----+++++-++++-+
+-++--+-+++--+---+-+-
+------+----+-+-+-+--
+++++--+---+-----+--+
+---++-++-++-+--++--+

Generation = 188, Population = 188.
+---+--+------+-+-+++
+-+--+--+---++--+----
----++--+----+-+-----
++-+----++++-+-+-+---
+-++-++----++-+++----
++--++-+-++---+-+-++-
-++--++++++++-++---++
-+-+-++--+--+-+----++
-+-----++----+------+
-+--+--+-----++-++-++
+++--+-+++-+++-+--+++
-+-+-++---++++---+++-
+-++++++++-++-++-----
-+++++++-+-++-+--++++
++++--+-+--+++---+--+
+-+-+-----+---+--+---
---+---+---+--+++-++-
++++-+-+-+--++---+++-
+---+--++++---+-+--++

Generation = 235, Population = 185.
+--+-++++---+--+-++--
----+--++--+---++-+--
++----+-++++--+-+++-+
-++-+-+----+-++---+-+
++-+--+---++---+-++++
----+-++-++-++-+---+-
+++----++-+-+----++-+
++-+-++--+-+-+--+-+++
-++-++---+----+++-++-
+--++-+-++----++++--+
++--+-+----+---+-+---
--++-+---++--+-+++---
--+--------+---+--+-+
+-+--++-++++++++--++-
+-+-++---+-+++-++-++-
--+--+-+--+++---+++++
--+--+++---++++++----
---+----++-+-++-+----
--+++-++++-----+--+--

Generation = 282, Population = 181.
-++---------++--+----
+++-+--+-+++----++-+-
+++-++-+----++---++--
--+++--+-++----++---+
+--++-++------+-+-+-+
-+---+-++-++----++-++
++++++++-+-++-----+++
---++++-++++-+-++-+-+
--+---+++-------+----
---++-++-++++---++--+
+--+-+---+--++-----++
--++------+-+-+++++++
+--++-+-+--+-++--++--
+---++-----+---+-++++
---+--+++--+--+--+++-
++-+--+++-------++---
++---------+--++++++-
-++-+-+-+-------+-+++
+++--+---+--++++-++--

*** Life<FredkinCell> 25x18 ***

Generation = 0, Population = 80.
------------00----
--0-------0-------
0--0----------0---
------0000------0-
-0----------00---0
0---------00--0---
--00000---------00
-----0------------
------------------
--0----------0----
0-----0-0-0---0-0-
---0-------------0
--------0---0---0-
------0-----------
---------0--0----0
0--------0--------
---0-----0---000--
----0-------------
------0-0--0-0-0--
--00-0-----0-0----
-00---0----------0
---0--0---00----0-
--0---------00----
------0--0--------
-0-----0----0-----

Generation = 48, Population = 236.
+9-+-6-+-+-+-+9-+-
+-++----7+--+----9
+--9-+7+-+--+7--++
-++-3---4-8-+++--+
+-+--8++-+-+7---++
6---++-98-++--5+--
-++89++++-++----++
6+-----+-+-79-++8-
-++-++-6-++--++-+-
+----+9--++++++---
-----+--+++9--5--+
77+----++99-8---+-
-+--+++-+--+--+---
-7---6----+++8+--7
++++-+97++++---859
5++++-9-+57-+94---
4+9-9-++++-------+
9--+------7++---+-
++-+--+++--+-++-+-
8-6-++--+-8-++-++-
------+-+++8-+----
--++--96-+--+9-+--
+++-+++--+7-+++++-
++--+--+-+-+8+-+7-
58--+-+65++-+-++-+

Generation = 96, Population = 217.
+-++-++-+---++++-+
+-++--+-----+-++-+
-+++--++++-+++++++
++-+--+--+--++--++
+++++--+++-+-+---+
+----++++-------+-
-+--+++-+-+-----++
-+--+-+++++++--+-+
----+--++-+-+--++-
----+-+--++-+--9--
++++-+-+-+++---+++
++-+-++-----+++++-
+-++++---+--+-+-++
---+----+--++++-+-
+++++-+-+++++-+---
++--+++-----++-+++
--+++------+--+++-
++-------++--+--+-
+--++++---+-+++++-
---+-+++-+----+-+-
+-++-++--+---+---+
---++-+--++----+--
---+++-++++-+--+--
----++----+----+--
++----+-+++----+--

Generation = 144, Population = 215.
+-+--+-++-++-----+
+-++----+++-+---++
+++--++-------+-+-
++-++---------+-+-
----+++----+++-+--
+++-+-+-+-+++++--+
-+-++++--+++-++-++
+-+-----+--++++++-
-+++----++----++-+
-++++++---++------
-+-----+-+++-+---+
---++-++++-+-+----
+--+++-+--++--+--+
---++-++-+-++-+-++
+-+++-+-+-++++---+
++++-+-+--++---+--
-++------+++--++--
-+--+-++++--++--+-
+++-----+--+-++-++
---+----+++---+-+-
-+++-+-----++++-++
+-+--+----+++---++
+-++--++-++++--+-+
-+++-+++-+-++-----
-++----+--+---++--

Generation = 192, Population = 224.
--+------++++-+-+-
+-+---+++++-+-++--
++-++++-+++++-+---
++----+++-+++++++-
-+---+++--+----++-
++-++--+-+-++--++-
--++-+--+--------+
-+-+++-----+++-++-
+-+--++-+-+-++---+
---+----++-+---+-+
+--+--+--+++-+---+
---+-+-++++-++---+
---++-+--+-+---+--
-++++-+-----+-+---
++-++-++-+--+++-++
+++++-+-+-+-++++++
+--------+-+++---+
++-++-+--+++-+--++
-+--+----++-++-+-+
---++++++++--++++-
++++-+++++--+++---
-+---++++--+---++-
+-+++---+----+----
+-++---+---++++-+-
++--+--+-+-++-++--

*** Life<FredkinCell> 14x6 ***

Generation = 0, Population = 23.
---0--
000-0-
--0--0
000-0-
-0----
0-0---
--00--
-0--0-
----00
------
0-----
---0--
-0----
------

Generation = 63, Population = 47.
---+-+
---+-+
+++-+-
+9+++-
+-+++-
++-5+9
+-+--+
---++-
++-+-+
--8++-
---++-
--++++
-+9--+
+--+++

Generation = 126, Population = 36.
-+----
+++---
--+-+-
+-----
+-++-+
+-+---
--+--+
-++-+-
++++-+
--+-+-
--+-+-
--+++-
-+-++-
-++-+-

Generation = 189, Population = 38.
+----+
++----
---+--
-----+
-++++-
-+--++
--+-++
-++-+-
+++-++
----++
+-++--
+--++-
---+-+
++++--

Generation = 252, Population = 55.
++++-+
+-++--
-+-+++
++-+++
+-+---
-++-+-
-+++++
++---+
+--+-+
---+++
++++++
++---+
-+++-+
++++++

Generation = 315, Population = 42.
++--++
--+--+
--++++
-++-++
+-+++-
------
+---+-
-++++-
------
+-++-+
---+-+
-++-++
+--+++
++-+-+

*** Life<FredkinCell> 18x17 ***

Generation = 0, Population = 55.
0--0------------0
-0----0-----0---0
--0---------0--0-
00--0-0---0------
-0----------0-00-
--00--00-------0-
0-------------00-
---0----0--------
---------00------
---0--0----------
---0--------0----
-0---------------
-0-0-0-------0--0
---0-------------
----------------0
-0--0--0--------0
------0-0--00----
-0--00----0------

Generation = 31, Population = 156.
-9-4-7--59-6-3++-
-33-8-+-95---58++
----7-+---+4---7-
74-64--7-2---9-0+
-+--+-5-6-57--6--
4-+-+4-+86-----7-
9-++-+--757+---7+
-877--+--6+-4354-
--3+--+----6+---7
--5-5--9-5-354-61
14-+-3+-----47-85
3-9-87-9-7-+--334
8+4----8--+---+--
9--9+-+-+---6+644
36---7--61-56-+-8
-+79--369-+--6-59
+--6-+-876-4+--+5
--6-+-+9-+-16-52-

Generation = 62, Population = 136.
-+----+++--+--+-+
-9-+----+--+--++-
----+-++---------
+7-++---+---+---+
-++-++-----------
-+-++-++++-++--++
--+-++-+8+-----+-
-+---+++---++-9--
+--+---++++--+++-
-+-------9+--+++8
9---++--+-6+-+-+-
++--++-++----++7-
+---+-------++---
++-+---+-+-8+-+--
+--++-+--++9--+--
--+-+++-+-+----5-
-+++-++++++++--++
+--+++--+-+++++2-

Generation = 93, Population = 156.
+++++--++++-++-++
+-++--++++++++++-
---+-+---+---++--
+-+++-++-----+++-
++--+-+---++++-++
+-----+++----+-+-
+-+++--+-+-+-+--+
--+++---++-+-+-++
-++-----+---++-+-
-++-+++++--+-+--+
--++++----+++-+--
++++---++--++++--
++-+-+-------++--
+-++-++----+----+
-+--------++++++-
-++++++-+++-+----
+----+--+-+--++-+
+--++-++++-+-+-++

Generation = 124, Population = 164.
-+--+-+++-+-+++++
+-++----+-+--+---
-++--+-++-+-+--+-
-++++---++--++-+-
-++-+++++++++++++
+--++-+--++---+-+
++++-+++++++++--+
---+++-+-+-+---+-
++--+---++--+++++
-+++--+-----+--+-
+++-+++++----+-+-
++-+-+----+++--++
++----++-+----++-
+-+--+++-++-+-+--
+-++-+++-+--+--+-
--++---++----+-+-
++++-+--+--+--+++
+-++++--++--+++--

Generation = 155, Population = 141.
----++++--+-+--+-
-++++++++----+--+
----+-++--++-+---
-+-+++-+++-++-+++
---+-++++--++++--
+++--+-------++--
++++-++---+--+---
-++-+-++-----+-+-
++-+-++-+-+--++-+
+--++++++---++---
----+---+------+-
-----+++----+-+++
----++-+-++--++++
+-++-+--+---+++--
-+----++-+++-+-++
++++-----++--++--
------++-+--+++++
----+--++++------

*** Life<FredkinCell> 13x12 ***

Generation = 0, Population = 13.
------------
------------
--0--0------
--0------0--
------------
------------
----0-------
--0---------
------------
--0---------
--0---------
-0------0---
---0---0--0-

Generation = 73, Population = 80.
-----8+----+
+-+-95-3+--8
++------+--+
+++-+++-++-+
++++-+++----
--+3-8-6--87
-++---+-+++-
+-+++---+-++
++++++++---+
++--+-+-+--7
-+--++++++--
-7--++--+---
-++++------+

*** Life<FredkinCell> 9x17 ***

Generation = 0, Population = 54.
00--0---00-00----
0--0------0000-00
-----0--0-000----
0----------00-0--
00-----0-------0-
----------0-----0
-----0-0000--0-00
0-0---0---0-0---0
0-0--00-0-00000--

Generation = 24, Population = 75.
3---4-58-867-+327
-6----7--2--68---
74--4--7+-5+-7-93
5-8-2-4+----6--4-
--+----71-75-5-8-
983---6-+-9735---
----9--813-852-9-
------27--3---666
8--7873-+-8396-19

Generation = 48, Population = 74.
9---+---+++--+---
+----+-++-+-+++++
98+-++----+--+--9
--+---+---+-9---+
8--+9+-+5--+-+9-+
-+6-++++-++---+++
-+-+---+--++-7+-+
--++----8-+---++-
+--+++9+---+-+6-+

Generation = 72, Population = 71.
-+++++-+-++-+----
-+++----+---+--++
+-+++-++-++--+---
--+---+++--+--+++
+-+-+--+++++7--++
+---+------------
--+--+-+++-++++++
+---+-+---+-+-+--
-+-++--+-+--+++--

Generation = 96, Population = 70.
+-----++-++--+++-
+++-+---++---+---
----+--+------+++
--++9-++---------
-++-++++-++--+++-
+-+-++-+-+++++++-
--+-+--+++--++++-
+--+---++--------
+-+----++--+-++++

Generation = 120, Population = 75.
+--+++-++++--+---
--++++-+-++---+--
++-+--++++--+---+
----+---+-+-+---+
+--++++-+-+-++++-
++-+-+-++----++-+
+--++++-------+++
---++--+--++--+-+
+--++++-+----+-++

Generation = 144, Population = 69.
+-+----+++--+++++
-+++-+-+-+++-++-+
++--+-++++--+--+-
---+--+-+-+++--++
---+---+-+--+----
+-+-+-+-+-+-+---+
---+++-+----+-+--
+-+-----+-----+--
--+-++++----++-++

Generation = 168, Population = 67.
+++-++-++---++++-
-+-------++--+--+
-+--+--++-+-++-++
+-----+-+--++---+
-++-++++----+-++-
-+-++-+--+++---++
-++-++-++---++++-
----------++--+--
----+---+--+++---

Generation = 192, Population = 68.
+-----+++--++--+-
+-+---+-+++++----
++--+-++--++-+++-
----+---+-------+
++++-+-----+--++-
-++-+-+-+--+++--+
+--+-+--+-+++--++
--+-+-++--+----+-
++-+++-----+--++-

Generation = 216, Population = 61.
---++--++-+++----
--+-++++--+--++++
+-++-+-+++-++++--
+-++--+---+----++
-+--+-+-----+----
--+-----+-+-----+
+++-+----++-+----
+-+---+---------+
--+++--+-+++-----

Generation = 240, Population = 82.
+---++++---++-+++
++--+----+---+---
-++---+++++++-+++
----+--+---+--+++
-+--++-++-++--+++
--++--+-+++--+-+-
----++-++--++--+-
+-+---+++-+++-+++
+-+++++++-+-+++-+

Generation = 264, Population = 84.
-----+-++++-++-++
+++-++-+--+++-++-
--+---+++-----+++
----+-+---+-+-+--
+---++-++++++-+++
+---++++++-+-++++
-+--+-++--++-++++
+-+++-++--+-+----
+---++-++++++--+-

Generation = 288, Population = 62.
--++-----++-++-++
+--+-+-+++----+-+
-+-+---------+++-
+-++---+--++-----
-+-+++-++-+---+-+
--+---+-+---+----
---++--+--+---+--
+---+---+-------+
++++-+--+++-+++++

Generation = 312, Population = 74.
+--++-+++-+-----+
+++-+-+-+++-++--+
++++-+++--+--+--+
---+--+-+--+---++
-+-++++++++--++--
---+-+-++-++--+-+
--++--+++-+---+--
+--+--+-+--+---++
-+--+--++---+--+-

Generation = 336, Population = 67.
--+-+-++++---++++
---++-+---++-+-++
-+--+--++----+-++
--+---+---------+
-+--+-+--+++-+---
++-+-----++++--++
+++--++-++-+--+--
------+-+-++----+
-++-----++-++++-+

Generation = 360, Population = 73.
-+-+++---+-+--++-
--+-+-+-++-++---+
-+-+++----+++++++
+-----++----+-+++
-++-+-++++++-+-+-
------+-----+----
-+--+--+++++---+-
+---+---+-+-+---+
++-+-++--+++++++-

Generation = 384, Population = 69.
-----++-+--------
-++-----+++--+--+
++---+----+--++--
+-++----+---+-++-
+-+-+-+-+-+-++---
++---+-++++-+-+++
+-+-+++-+-+-+-+-+
--++--+-----+--++
++++---+++-+-++-+

*** Life<FredkinCell> 13x2 ***

Generation = 0, Population = 5.
--
--
--
--
--
0-
0-
-0
--
-0
--
--
0-

Generation = 80, Population = 8.
+-
++
--
--
+-
--
+-
--
--
-+
--
-+
6-

Generation = 160, Population = 10.
+-
-+
+-
-+
+-
++
--
-+
+-
+-
--
--
--

Generation = 240, Population = 11.
+-
-+
+-
-+
+-
-+
+-
--
+-
++
--
--
+-

*** Life<FredkinCell> 24x7 ***

Generation = 0, Population = 22.
0------
-------
0------
---0---
----0--
-------
-------
-------
------0
----0--
-------
-------
-0--0--
0--00-0
-------
-0-0---
-0-----
-------
---0---
---0---
-0----0
-------
---0--0
---0---

Generation = 14, Population = 74.
2031--0
---3-0-
02---0-
21--120
----5-2
5---52-
6-2-311
-9-6-2-
----7-3
02-32--
3----14
1--3--2
3-5-4-4
--1--21
-0---2-
---6---
--407-2
-41---3
-11----
23-4--3
--1---7
---3-23
0-0---2
3---34-

Generation = 28, Population = 60.
42----1
---6---
-----52
-------
---5--6
-1-6---
865-33-
3--+3-2
8-51---
-4---3-
--6-+57
4--74-5
7-8-6--
-3-+---
63----8
----7--
4------
---7---
2-4-4-8
-4--5--
-------
62--+-6
----6-4
73--670

Generation = 42, Population = 88.
-6--55-
36--465
--4-+8-
84--8--
496+-7-
+---+49
-+8-754
5+-+845
+68-+56
---+-47
6-----8
---++57
-8-6+4-
+-2----
+56---9
-+3-987
-----56
---+---
6-68+-+
--07--5
9----49
8----8+
4-33+-6
-9----0

Generation = 56, Population = 59.
---86-8
----+--
3--+--9
+--+--9
---+--+
+9--+-+
++-8+--
5--++-9
+--5---
4--++-+
-9-+--+
+--++-+
+------
---++--
-+-9+--
-------
-------
----+--
---+--+
+-----6
+------
+5--+-+
---6+-+
+---+-6

Generation = 70, Population = 82.
--8-9++
+--+--7
5+---++
++6++7+
---+-++
++--+++
-+--+-+
--4--++
+-+--8-
-+--+8-
8-+-+-+
-+---+-
+-+-+9-
---+-9-
+-+---+
8--++-+
+----9+
++-+---
------+
-+0--7+
-4---6+
+7-++--
+--8+-+
++5----

Generation = 84, Population = 74.
--++-++
+---+-9
++---+-
-+--++-
--+++--
+---+-+
++---++
-+-+---
+-+-++-
---++--
9--+-++
---++--
++-++++
-+-++--
++-++-+
+--++-+
--+-+++
-+---+-
++----+
+--+--+
+9++---
-+-----
-----+-
----+--

Generation = 98, Population = 73.
++--++-
+---+-+
+-+++-+
+--+-+-
+--+-+-
++6+-+-
--+-+--
+-5----
+--+-++
+----+-
---+---
+--+--+
+++-+++
-+7--++
--+--+-
----+--
+-----+
-------
+--+-9+
---++--
-++---+
-+6+--+
+++---+
-+-+++-

Generation = 112, Population = 45.
-+-++-+
---++--
+------
-------
+-----+
+--+--+
-+-++--
---++--
+------
----+--
++-+---
+--+--+
------+
-------
------+
-------
-+-+--+
-------
---+--+
+-----+
+-----+
-+-++--
++----+
+--+--+

Generation = 126, Population = 69.
--+--++
-------
+++--+-
-------
---++++
---+---
++--+-+
---+-+-
++---+-
++--+++
--++--+
+--+++-
-+----+
-+-----
--+-+-+
---+-++
+-+-+-+
---++++
--+---+
-+++--+
+-+-+-+
++--+--
+-+---+
+++----

Generation = 140, Population = 78.
+-+-+-+
+---+++
--+-+-+
++---++
-++-+-+
++--+-+
------+
-+-++--
-----++
-+--+--
++-+--+
+--++-+
-+---+-
-+--++-
+--+++-
++--+-+
+--+-++
++--+-+
+++-+++
-+---+-
-+-++--
+---+-+
++---+-
-+-----

Generation = 154, Population = 87.
-++--++
-+-++--
+++-+++
++++---
++--++-
+++++-+
+++--++
-++--++
--+-++-
-++----
-+-++++
-+++-+-
+++-+++
+++----
--+-++-
+----++
---+---
+--+---
-+-+-+-
--+--++
+++---+
+---+--
-+--+--
++++-+-

Generation = 168, Population = 65.
+--+---
++----+
-+--+--
++--+-+
---++--
----+--
+--+--+
-------
+--+--+
+--++-+
+--++-+
++----+
++-++-+
-+-++--
-+--+-+
++--+-+
++-+---
-+-+---
++--+--
-+-----
+------
-+-+---
-+--+-+
+--++-+

Generation = 182, Population = 83.
+---+++
-++-+-+
+---++-
+-+++--
----+++
+-+--++
+-+-+++
-+-----
++---++
--+-++-
+--+-++
-++-+--
-++-+-+
----++-
+++-+++
++-++--
--++--+
+---+-+
-++-+--
-+-++--
+---+-+
-++-+++
--+---+
--++--+

Generation = 196, Population = 76.
-+++++-
---+-+-
-+--+++
++-+--+
-+-+-++
++-++-+
---+++-
-+--++-
++---+-
+---+-+
---+--+
-+-+---
+-+--++
----+--
--+--++
-+-----
++-+--+
+--+--+
-++--+-
---+++-
--+++--
-+-+---
+++-+++
+----++

Generation = 210, Population = 90.
++-++-+
-++---+
++++--+
----+--
-++-+++
----++-
-++++--
+++----
+-+++-+
+++++++
--+----
+++++--
+---+-+
--+---+
++-++++
-+++--+
-+-++++
-++--++
---+++-
+-+--+-
-+-----
+----+-
++++++-
+--++++

Generation = 224, Population = 58.
++--+--
-+-+---
++-++-+
---+---
+-----+
-+--+--
---+---
-+-++--
+------
-+-----
++--+--
++-++-+
+------
---+---
++-++-+
-+-++--
+--++-+
-------
+--+--+
-+--+--
-+-++--
---++--
-------
++-++-+

Generation = 238, Population = 83.
+-+++-+
-----++
+-+++++
----+-+
++++++-
+-++++-
-++----
----++-
+++--+-
----++-
-+-++--
+-+-++-
---+---
---++++
+--++++
++--+--
+--+-++
+---++-
--++--+
-+-+--+
-+-+---
++-+--+
-++--+-
--+++++

Generation = 252, Population = 63.
+-+-+-+
-----+-
+-+---+
+-----+
+-+-+-+
-+-+---
+-+-+-+
----+--
--+-+-+
-+-----
-++-+-+
+--++-+
------+
-+-+-+-
+---+++
+---+-+
---+--+
-+-+---
+++-++-
---+---
--+++--
-------
+++-+++
-------

Generation = 266, Population = 78.
+-++--+
---++--
-+--+--
-++---+
-++-+++
-------
+-+++-+
--+---+
+++-+++
+---+-+
---+---
+++++-+
+++-+++
-+-+++-
+---+-+
+---+--
--+----
+---+++
+-+++-+
+--++++
-+--+--
+----+-
--+----
+++--+-

Generation = 280, Population = 56.
-+--+-+
-------
++-++--
++-+--+
++--+--
+--++-+
---+--+
---+---
-+--+--
---++--
+--++-+
+--+--+
++--+-+
---+---
------+
-+-+---
++--+--
++--+-+
------+
-+-++--
-------
+-----+
+-----+
----+--

Generation = 294, Population = 85.
++-----
+++++-+
+-+++-+
+---+++
-+--++-
+-+-+--
------+
---++++
+---++-
++--++-
+-----+
----+++
-++-++-
+-+--+-
++++---
-++-+++
-+-++--
++--+++
-----+-
+-++-++
+--+--+
-++++-+
+++-+--
-+--+-+

Generation = 308, Population = 69.
--+-+++
----+--
--++-++
-+--+--
+--+---
+-----+
++----+
-+-+-+-
-+--+++
+--+--+
+++-+--
-+-++--
++++---
---+---
+-++++-
-+-+---
-++-+-+
+---+-+
+--+-+-
-+--++-
++-+-+-
+-----+
-+-+---
-+-----

Generation = 322, Population = 80.
-+-++++
-+++--+
+++--+-
-+--++-
---+--+
-+---+-
+--+-++
-+-+++-
++++--+
--++-++
--+---+
-+--+--
+-++---
++--+++
+-+-++-
+----+-
---+---
++++-+-
+-+-++-
+-++---
+------
++-----
-++-++-
++-++-+

Generation = 336, Population = 58.
++-+---
-+--+--
+--++--
----+--
----+-+
+--+--+
---+--+
---+---
++-++-+
-+-+---
-+-++--
++-++-+
++-+--+
-------
++----+
---++--
+--++-+
+--+--+
-+-----
-------
++----+
---+---
-+-++--
-+--+--

Generation = 350, Population = 90.
--+--++
++-+-+-
+++-++-
-+++-++
+-+++++
++--+--
--+---+
+-+--+-
+-+++++
+-+-+--
-++--+-
-+++-+-
-++--+-
-+++++-
+-++-++
++-+--+
+-----+
---+---
-+-+-++
++---++
+--+-++
+-++--+
-+++---
+++-+--

Generation = 364, Population = 87.
--+-+--
++----+
+-++-++
++-+-++
-++-++-
+--++++
+++-+++
---+---
+-+---+
+--+-++
+++-+++
++--+++
-++-++-
++-++-+
--+++++
-------
+++-+--
++--+-+
+------
+--++++
---+--+
---+++-
---+-+-
-+-+-+-

Generation = 378, Population = 79.
-+-+++-
-++-++-
+++-++-
+-+++-+
+-+++-+
-++++--
-+-+-+-
++--+++
-+--+--
+-++-+-
+---+--
-++++--
+-++--+
+------
-+--+-+
+----+-
--+---+
+++++-+
----+--
---+--+
+---+--
+-+++--
+---+-+
----++-

*** Life<FredkinCell> 22x14 ***

Generation = 0, Population = 77.
------0-----0-
0--00----0----
-0-0----0----0
00-----0------
-0---------0-0
---0-------00-
--00---0------
----000-----00
0-0---0-----0-
------0------0
---0-----00---
-0--00-00--0--
--0--------000
-00--0---0----
-----00--0----
-------00--0-0
00--------0---
------0-----00
--0--00-0--0--
---0---0--0---
-------00-----
-------00---00
